{"result_ok":true,"total_count":8,"page":1,"total_pages":3,"results_per_page":"3","data":[{"id":"1","contact_id":"","status":"Complete","is_test_data":"0","date_submitted":"2023-04-10 00:57:07 EDT","session_id":"1681102619_6433971b537ad5.70411171","language":"English","date_started":"2023-04-10 00:56:59 EDT","link_id":"16123234","url_variables":{"ticket":{"key":"ticket","value":"CARMA0005","type":"url"}},"ip_address":"37.186.126.12","referer":"","user_agent":"Mozilla\/5.0 (Windows NT 10.0; Win64; x64) AppleWebKit\/537.36 (KHTML, like Gecko) Chrome\/111.0.0.0 Safari\/537.36","response_time":8,"data_quality":[],"longitude":"44.509899139404","latitude":"40.181701660156","country":"Armenia","city":"Yerevan","region":"11","postal":"","dma":"0","survey_data":{"3":{"id":3,"type":"RADIO","question":"<span style=\"font-size:16px;\"><strong>Please indicate whether you agree to participate in this study:<\/strong><\/span>","section_id":1,"original_answer":"0","answer":"0","answer_id":10003,"shown":true},"6":{"id":6,"type":"MENU","question":"<span style=\"font-size:16px;\">In what state do you live?<\/span>","section_id":3,"shown":false},"8":{"id":8,"type":"RADIO","question":"<span style=\"font-size:16px;\">How would you describe your community?<\/span>","section_id":3,"shown":false},"9":{"id":9,"type":"MENU","question":"<span style=\"font-size:16px;\">How old are you?<\/span>","section_id":3,"shown":false},"10":{"id":10,"type":"RADIO","question":"<span style=\"font-size:16px;\">Are you Hispanic, Latino\/a\/x, or of Spanish origin?<\/span>","section_id":3,"shown":false},"12":{"id":12,"type":"RADIO","question":"<span style=\"font-size:16px;\">Which of the following would you say is your race? (Please choose the option that best applies.)<\/span>","section_id":3,"shown":false},"14":{"id":14,"type":"RADIO","question":"<span style=\"font-size:16px;\">What sex were you assigned at birth?<\/span>","section_id":3,"shown":false},"15":{"id":15,"type":"RADIO","question":"<span style=\"font-size:16px;\">Understanding that gender identity can be complex, which gender best applies to you? (Please choose the option that best applies.)<\/span>","section_id":3,"shown":false},"16":{"id":16,"type":"RADIO","question":"<span style=\"font-size:16px;\">How would you describe your sexual orientation? (Please choose the option that best applies.)<\/span>","section_id":3,"shown":false},"17":{"id":17,"type":"MENU","question":"<span style=\"font-size:16px;\"><em>We understand that marijuana can be a sensitive issue and that some people aren\u2019t comfortable sharing this information. Please note that your answers to this survey will be confidential and will never be stored with any personal information. Thank you for being as honest as you can when answering.<\/em><br \/><br \/>\nIn the past 30 days, how many days did you use marijuana (also known as cannabis, pot, weed, hash, kush)?<\/span><br \/>\n\u00a0","section_id":3,"shown":false}}},{"id":"2","contact_id":"","status":"Partial","is_test_data":"0","date_submitted":"2023-04-10 00:57:39 EDT","session_id":"1681102451_64339673a6f851.75003511","language":"English","date_started":"2023-04-10 00:54:11 EDT","link_id":"16123234","url_variables":{"ticket":{"key":"ticket","value":"CARMA0001","type":"url"}},"ip_address":"37.186.126.12","referer":"","user_agent":"Mozilla\/5.0 (Windows NT 10.0; Win64; x64) AppleWebKit\/537.36 (KHTML, like Gecko) Chrome\/111.0.0.0 Safari\/537.36","response_time":208,"data_quality":[],"longitude":"44.509899139404","latitude":"40.181701660156","country":"Armenia","city":"Yerevan","region":"11","postal":"","dma":"0","survey_data":{"3":{"id":3,"type":"RADIO","question":"<span style=\"font-size:16px;\"><strong>Please indicate whether you agree to participate in this study:<\/strong><\/span>","section_id":1,"original_answer":"1","answer":"1","answer_id":10004,"shown":true},"6":{"id":6,"type":"MENU","question":"<span style=\"font-size:16px;\">In what state do you live?<\/span>","section_id":3,"shown":false},"8":{"id":8,"type":"RADIO","question":"<span style=\"font-size:16px;\">How would you describe your community?<\/span>","section_id":3,"shown":false},"9":{"id":9,"type":"MENU","question":"<span style=\"font-size:16px;\">How old are you?<\/span>","section_id":3,"shown":false},"10":{"id":10,"type":"RADIO","question":"<span style=\"font-size:16px;\">Are you Hispanic, Latino\/a\/x, or of Spanish origin?<\/span>","section_id":3,"shown":false},"12":{"id":12,"type":"RADIO","question":"<span style=\"font-size:16px;\">Which of the following would you say is your race? (Please choose the option that best applies.)<\/span>","section_id":3,"shown":false},"14":{"id":14,"type":"RADIO","question":"<span style=\"font-size:16px;\">What sex were you assigned at birth?<\/span>","section_id":3,"shown":false},"15":{"id":15,"type":"RADIO","question":"<span style=\"font-size:16px;\">Understanding that gender identity can be complex, which gender best applies to you? (Please choose the option that best applies.)<\/span>","section_id":3,"shown":false},"16":{"id":16,"type":"RADIO","question":"<span style=\"font-size:16px;\">How would you describe your sexual orientation? (Please choose the option that best applies.)<\/span>","section_id":3,"shown":false},"17":{"id":17,"type":"MENU","question":"<span style=\"font-size:16px;\"><em>We understand that marijuana can be a sensitive issue and that some people aren\u2019t comfortable sharing this information. Please note that your answers to this survey will be confidential and will never be stored with any personal information. Thank you for being as honest as you can when answering.<\/em><br \/><br \/>\nIn the past 30 days, how many days did you use marijuana (also known as cannabis, pot, weed, hash, kush)?<\/span><br \/>\n\u00a0","section_id":3,"shown":false}}},{"id":"3","contact_id":"","status":"Partial","is_test_data":"0","date_submitted":"2023-04-10 01:00:09 EDT","session_id":"1681102799_643397cfa54442.11473684","language":"English","date_started":"2023-04-10 00:59:59 EDT","link_id":"16123234","url_variables":[],"ip_address":"37.186.126.12","referer":"https:\/\/app.alchemer.com\/","user_agent":"Mozilla\/5.0 (Windows NT 10.0; Win64; x64) AppleWebKit\/537.36 (KHTML, like Gecko) Chrome\/111.0.0.0 Safari\/537.36","response_time":10,"data_quality":[],"longitude":"44.509899139404","latitude":"40.181701660156","country":"Armenia","city":"Yerevan","region":"11","postal":"","dma":"0","survey_data":{"3":{"id":3,"type":"RADIO","question":"<span style=\"font-size:16px;\"><strong>Please indicate whether you agree to participate in this study:<\/strong><\/span>","section_id":1,"original_answer":"1","answer":"1","answer_id":10004,"shown":true},"6":{"id":6,"type":"MENU","question":"<span style=\"font-size:16px;\">In what state do you live?<\/span>","section_id":3,"shown":false},"8":{"id":8,"type":"RADIO","question":"<span style=\"font-size:16px;\">How would you describe your community?<\/span>","section_id":3,"shown":false},"9":{"id":9,"type":"MENU","question":"<span style=\"font-size:16px;\">How old are you?<\/span>","section_id":3,"shown":false},"10":{"id":10,"type":"RADIO","question":"<span style=\"font-size:16px;\">Are you Hispanic, Latino\/a\/x, or of Spanish origin?<\/span>","section_id":3,"shown":false},"12":{"id":12,"type":"RADIO","question":"<span style=\"font-size:16px;\">Which of the following would you say is your race? (Please choose the option that best applies.)<\/span>","section_id":3,"shown":false},"14":{"id":14,"type":"RADIO","question":"<span style=\"font-size:16px;\">What sex were you assigned at birth?<\/span>","section_id":3,"shown":false},"15":{"id":15,"type":"RADIO","question":"<span style=\"font-size:16px;\">Understanding that gender identity can be complex, which gender best applies to you? (Please choose the option that best applies.)<\/span>","section_id":3,"shown":false},"16":{"id":16,"type":"RADIO","question":"<span style=\"font-size:16px;\">How would you describe your sexual orientation? (Please choose the option that best applies.)<\/span>","section_id":3,"shown":false},"17":{"id":17,"type":"MENU","question":"<span style=\"font-size:16px;\"><em>We understand that marijuana can be a sensitive issue and that some people aren\u2019t comfortable sharing this information. Please note that your answers to this survey will be confidential and will never be stored with any personal information. Thank you for being as honest as you can when answering.<\/em><br \/><br \/>\nIn the past 30 days, how many days did you use marijuana (also known as cannabis, pot, weed, hash, kush)?<\/span><br \/>\n\u00a0","section_id":3,"shown":false}}}]}